[gd_scene load_steps=7 format=2]

[ext_resource path="res://sprites/static/Background.png" type="Texture" id=1]
[ext_resource path="res://sprites/static/StickyNote.png" type="Texture" id=2]
[ext_resource path="res://sprites/static/MainBoard.png" type="Texture" id=3]
[ext_resource path="res://Phonebook.tscn" type="PackedScene" id=4]
[ext_resource path="res://DialogPlayer.tscn" type="PackedScene" id=6]
[ext_resource path="res://Main.gd" type="Script" id=7]

[node name="Main" type="Node2D"]
script = ExtResource( 7 )

[node name="Background" type="Sprite" parent="."]
modulate = Color( 0.529412, 0.529412, 0.529412, 1 )
texture = ExtResource( 1 )
centered = false

[node name="MainBoard" type="Sprite" parent="."]
position = Vector2( 960, 540 )
texture = ExtResource( 3 )

[node name="StickyNote" type="Sprite" parent="."]
position = Vector2( 1549, 111 )
texture = ExtResource( 2 )

[node name="Phonebook" parent="." instance=ExtResource( 4 )]
z_index = 10

[node name="DialogPlayer" parent="." instance=ExtResource( 6 )]

[connection signal="page_turned" from="Phonebook" to="." method="_on_Phonebook_page_turned"]
[connection signal="dialog_finished" from="DialogPlayer" to="." method="_on_DialogPlayer_dialog_finished"]
