[gd_scene load_steps=4 format=2]

[ext_resource path="res://sprites/switchboard/port.png" type="Texture" id=1]
[ext_resource path="res://Port.gd" type="Script" id=2]

[sub_resource type="CircleShape2D" id=1]
radius = 12.0

[node name="Port" type="Area2D"]
collision_layer = 2
script = ExtResource( 2 )

[node name="CollisionShape2D" type="CollisionShape2D" parent="."]
shape = SubResource( 1 )

[node name="Port" type="Sprite" parent="."]
texture = ExtResource( 1 )
